{
  "project_info": {
    "project_number": "212272480912",
    "firebase_url": "https://annanow-stage.firebaseio.com",
    "project_id": "annanow-stage",
    "storage_bucket": "annanow-stage.appspot.com"
  },
  "client": [
    {
      "client_info": {
        "mobilesdk_app_id": "1:212272480912:android:e6baae448bd22c64",
        "android_client_info": {
          "package_name": "com.annanow.android.postman.stage"
        }
      },
      "oauth_client": [
        {
          "client_id": "212272480912-9utstmnaae8eimlo3dl77158g3ilo6ke.apps.googleusercontent.com",
          "client_type": 3
        }
      ],
      "api_key": [
        {
          "current_key": "AIzaSyCXFVwBeBCG2DTY21tX7FkzV3RIPeQxLe0"
        }
      ],
      "services": {
        "analytics_service": {
          "status": 1
        },
        "appinvite_service": {
          "status": 1,
          "other_platform_oauth_client": []
        },
        "ads_service": {
          "status": 2
        }
      }
    },
    {
      "client_info": {
        "mobilesdk_app_id": "1:212272480912:android:31cc2d48f6839762",
        "android_client_info": {
          "package_name": "com.annanow.android.shop.stage"
        }
      },
      "oauth_client": [
        {
          "client_id": "212272480912-9utstmnaae8eimlo3dl77158g3ilo6ke.apps.googleusercontent.com",
          "client_type": 3
        }
      ],
      "api_key": [
        {
          "current_key": "AIzaSyCXFVwBeBCG2DTY21tX7FkzV3RIPeQxLe0"
        }
      ],
      "services": {
        "analytics_service": {
          "status": 1
        },
        "appinvite_service": {
          "status": 1,
          "other_platform_oauth_client": []
        },
        "ads_service": {
          "status": 2
        }
      }
    },
    {
      "client_info": {
        "mobilesdk_app_id": "1:212272480912:android:3db8ff84da1a1199",
        "android_client_info": {
          "package_name": "com.annanow.android.tracker.stage"
        }
      },
      "oauth_client": [
        {
          "client_id": "212272480912-9utstmnaae8eimlo3dl77158g3ilo6ke.apps.googleusercontent.com",
          "client_type": 3
        }
      ],
      "api_key": [
        {
          "current_key": "AIzaSyCXFVwBeBCG2DTY21tX7FkzV3RIPeQxLe0"
        }
      ],
      "services": {
        "analytics_service": {
          "status": 1
        },
        "appinvite_service": {
          "status": 1,
          "other_platform_oauth_client": []
        },
        "ads_service": {
          "status": 2
        }
      }
    }
  ],
  "configuration_version": "1"
}